{
    "key": "group_5a463e50e8aca",
    "title": "Custom logo",
    "fields": [
        {
            "key": "field_5a463e5f0db05",
            "label": "Custom Logo",
            "name": "custom_logo",
            "type": "image",
            "instructions": "If you upload a logo here it will overwrite the default logo",
            "required": 0,
            "conditional_logic": 0,
            "wrapper": {
                "width": "",
                "class": "",
                "id": ""
            },
            "return_format": "url",
            "preview_size": "thumbnail",
            "library": "all",
            "min_width": "",
            "min_height": "",
            "min_size": "",
            "max_width": "",
            "max_height": "",
            "max_size": "",
            "mime_types": ""
        },
        {
            "key": "field_5a4640fe3784a",
            "label": "Custom logo url",
            "name": "custom_logo_url",
            "type": "text",
            "instructions": "If you enter an url here it will overwrite the home default url",
            "required": 0,
            "conditional_logic": 0,
            "wrapper": {
                "width": "",
                "class": "",
                "id": ""
            },
            "default_value": "",
            "placeholder": "",
            "prepend": "",
            "append": "",
            "maxlength": ""
        }
    ],
    "location": [
        [
            {
                "param": "post_type",
                "operator": "==",
                "value": "page"
            }
        ]
    ],
    "menu_order": 0,
    "position": "normal",
    "style": "default",
    "label_placement": "top",
    "instruction_placement": "label",
    "hide_on_screen": "",
    "active": 1,
    "description": "",
    "modified": 1514553653
}